<svg width="80" height="79" viewBox="0 0 80 79" fill="none" xmlns="http://www.w3.org/2000/svg">
<circle cx="39.6924" cy="39.5" r="38.5" stroke="url(#paint0_linear)" stroke-width="2"/>
<g clip-path="url(#clip0)">
<path d="M56.9171 28.7884L54.2534 28.7883V26.0309C54.2534 25.3997 53.7916 24.8633 53.1672 24.7699C53.0582 24.7535 50.4632 24.3766 47.3384 24.9452C43.8548 25.579 41.0766 27.1421 39.1923 29.5052C37.3079 27.1421 34.5297 25.579 31.0463 24.9452C27.9213 24.3767 25.3263 24.7535 25.2175 24.7699C24.5931 24.8634 24.1312 25.3998 24.1312 26.0309V28.7883H21.4675C20.7634 28.7883 20.1924 29.3593 20.1924 30.0635V54.0924C20.1924 54.5053 20.3922 54.8925 20.7289 55.1318C21.0655 55.3711 21.497 55.4325 21.8869 55.2966C21.9826 55.2635 31.538 52.0024 38.6631 55.2525C38.9994 55.4059 39.3854 55.4059 39.7216 55.2525C46.8268 52.0116 56.4027 55.2637 56.4979 55.2966C56.6345 55.3442 56.776 55.3676 56.917 55.3676C57.1784 55.3676 57.4371 55.2873 57.6559 55.1319C57.9925 54.8927 58.1924 54.5054 58.1924 54.0925V30.0637C58.1923 29.3594 57.6214 28.7884 56.9171 28.7884ZM22.7427 52.3862V31.3386H24.1312V48.3204C24.1312 48.6909 24.2933 49.0427 24.5736 49.2849C24.854 49.5271 25.2268 49.6358 25.5932 49.5817C25.6636 49.5714 31.2031 48.8109 35.2503 51.5877C30.2649 50.7352 25.2753 51.7213 22.7427 52.3862ZM37.9172 50.4377C36.1347 48.8272 33.8128 47.7381 31.0463 47.2347C29.7149 46.9924 28.4797 46.9218 27.4919 46.9218C27.1987 46.9218 26.9272 46.9281 26.6817 46.9379V27.2019H26.6815C29.1323 27.0913 35.0942 27.3534 37.9172 32.1389V50.4377ZM40.4674 32.1391C43.2803 27.374 49.2515 27.1 51.7031 27.2051V46.9379C50.6305 46.8947 49.0649 46.9205 47.3384 47.2347C44.5718 47.7381 42.25 48.827 40.4674 50.4377V32.1391ZM43.1301 51.5885C47.1778 48.81 52.7203 49.5713 52.7894 49.5815C53.1567 49.6367 53.5293 49.5287 53.8105 49.2866C54.0917 49.0443 54.2534 48.6917 54.2534 48.3204V31.3388H55.6419V52.3862C53.1086 51.721 48.1169 50.7346 43.1301 51.5885Z" fill="url(#paint1_linear)"/>
</g>
<defs>
<linearGradient id="paint0_linear" x1="39.6924" y1="0" x2="39.6924" y2="79" gradientUnits="userSpaceOnUse">
<stop stop-color="#FF5700"/>
<stop offset="1" stop-color="#EAA947"/>
</linearGradient>
<linearGradient id="paint1_linear" x1="39.1924" y1="24.6323" x2="39.1924" y2="55.3676" gradientUnits="userSpaceOnUse">
<stop stop-color="#FF5700"/>
<stop offset="1" stop-color="#EAA947"/>
</linearGradient>
<clipPath id="clip0">
<rect width="38" height="38" fill="white" transform="translate(20.1924 21)"/>
</clipPath>
</defs>
</svg>
